timeUnit,sex,unEmploymentDuration,unEmployedDurationPerCent
1998,M,Total,5.816494271375228
1998,M,Less than 6 months,2.05288033107361
1998,M,6 to 11 months,1.1197529078583326
1998,M,12 months or more,2.643861032443285
1998,M,24 months or more,1.4618996297039342
1999,M,Total,7.182609597663844
1999,M,Less than 6 months,2.388964242549025
1999,M,6 to 11 months,1.414518301509291
1999,M,12 months or more,3.3948439236222985
1999,M,24 months or more,1.9488918820794676
2000,M,Total,8.57475347583757
2000,M,Less than 6 months,3.3533410914436206
2000,M,6 to 11 months,1.1943406627059472
2000,M,12 months or more,4.027071721688001
2000,M,24 months or more,2.5571139829729894
2001,M,Total,7.395196203799283
2001,M,Less than 6 months,2.2647788374135303
2001,M,6 to 11 months,1.278752676906959
2001,M,12 months or more,3.8516646894787927
2001,M,24 months or more,2.434252083750597
2002,M,Total,6.518702467794506
2002,M,Less than 6 months,1.7538413782399502
2002,M,6 to 11 months,0.8691603290392674
2002,M,12 months or more,3.8957007605152882
2002,M,24 months or more,2.700605308086295
2003,M,Total,5.76571508929827
2003,M,Less than 6 months,2.187534180221566
2003,M,6 to 11 months,0.6875107423553493
2003,M,12 months or more,2.890670166721355
2003,M,24 months or more,2.0312817387771682
2004,M,Total,5.93280352506098
2004,M,Less than 6 months,1.9828468014792666
2004,M,6 to 11 months,0.8025808482177984
2004,M,12 months or more,3.1473758753639154
2004,M,24 months or more,1.9985836808560864
2005,M,Total,4.859824919662503
2005,M,Less than 6 months,1.9787560747811497
2005,M,6 to 11 months,0.4749014579474759
2005,M,12 months or more,2.406167386933878
2005,M,24 months or more,1.6304950056196672
2006,M,Total,3.487649897281544
2006,M,Less than 6 months,1.2262513337473924
2006,M,6 to 11 months,0.4777602599015814
2006,M,12 months or more,1.7836383036325705
2006,M,24 months or more,1.0669979137801984
2007,M,Total,3.05962259315029
2007,M,Less than 6 months,1.1854035177650337
2007,M,6 to 11 months,0.2402844968442636
2007,M,12 months or more,1.6179156120847082
2007,M,24 months or more,0.929100054464486
2008,M,Total,3.279479141548107
2008,M,Less than 6 months,1.6236636926292096
2008,M,6 to 11 months,0.49835222249015354
2008,M,12 months or more,1.1574632264287437
2008,M,24 months or more,0.5787316132143718
2009,M,Total,9.383248567565827
2009,M,Less than 6 months,4.683576900791862
2009,M,6 to 11 months,2.204982939548059
2009,M,12 months or more,2.494688727225906
2009,M,24 months or more,0.8852121290156442
2010,M,Total,10.679768041237113
2010,M,Less than 6 months,3.269974226804124
2010,M,6 to 11 months,2.2551546391752577
2010,M,12 months or more,5.154639175257731
2010,M,24 months or more,2.0135309278350517
2011,M,Total,7.342262385025013
2011,M,Less than 6 months,2.1461997740842342
2011,M,6 to 11 months,0.7584314991124738
2011,M,12 months or more,4.437631111828304
2011,M,24 months or more,2.5818944650637405
2012,M,Total,6.131316955113583
2012,M,Less than 6 months,1.9574916927935184
2012,M,6 to 11 months,0.7765256301990817
2012,M,12 months or more,3.397299632120983
2012,M,24 months or more,2.03837977927259
2013,M,Total,5.11225041263164
2013,M,Less than 6 months,2.0124414322740423
2013,M,6 to 11 months,0.714092121129499
2013,M,12 months or more,2.369487492838792
2013,M,24 months or more,1.509331074205532
2014,M,Total,4.439609119249853
2014,M,Less than 6 months,1.496132010882734
2014,M,6 to 11 months,0.7155413965091337
2014,M,12 months or more,2.2279357118579846
2014,M,24 months or more,1.1383613126281673
2015,M,Total,3.548240609776542
2015,M,Less than 6 months,1.5950806410922072
2015,M,6 to 11 months,0.5045663252434532
2015,M,12 months or more,1.448593643440882
2015,M,24 months or more,0.9114746520526897
2016,M,Total,4.280794152175746
2016,M,Less than 6 months,2.237687852273685
2016,M,6 to 11 months,0.6323900452077807
2016,M,12 months or more,1.41071625469428
2016,M,24 months or more,0.7621110801221972
